Library\Bee\artifacts\mvdfrm\UnityEditor.TestRunner.ref.dll_3CEDFFDC50464BDC.mvfrm
Library\Bee\artifacts\mvdfrm\UnityEditor.UI.ref.dll_5DAE2CC8CF4B8C9E.mvfrm
Library\Bee\artifacts\mvdfrm\UnityEngine.TestRunner.ref.dll_090C4A8A7C09A9C7.mvfrm
Library\Bee\artifacts\mvdfrm\UnityEngine.UI.ref.dll_1A140323D56DB509.mvfrm
Library\Bee\artifacts\mvdfrm\UnityEditor.Graphs.dll_96BC61AA9E32A454.mvfrm
Library\Bee\artifacts\mvdfrm\UnityEditor.CoreModule.dll_BA61BC8430F6BC22.mvfrm
Library\Bee\artifacts\mvdfrm\UnityEditor.DeviceSimulatorModule.dll_D47B1F6D770D793F.mvfrm
Library\Bee\artifacts\mvdfrm\UnityEditor.DiagnosticsModule.dll_208650A48A1AC3CD.mvfrm
Library\Bee\artifacts\mvdfrm\UnityEditor.dll_1346B5374F3273D3.mvfrm
Library\Bee\artifacts\mvdfrm\UnityEditor.EditorToolbarModule.dll_87A7ED3011B6752F.mvfrm
Library\Bee\artifacts\mvdfrm\UnityEditor.GraphViewModule.dll_60BAB967D981F004.mvfrm
Library\Bee\artifacts\mvdfrm\UnityEditor.PresetsUIModule.dll_1C20F249DBDA4809.mvfrm
Library\Bee\artifacts\mvdfrm\UnityEditor.QuickSearchModule.dll_AB95D1B1E2F1C026.mvfrm
Library\Bee\artifacts\mvdfrm\UnityEditor.SceneTemplateModule.dll_AB475DEE10A31F67.mvfrm
Library\Bee\artifacts\mvdfrm\UnityEditor.SceneViewModule.dll_9F6A9C6FCEA4BD12.mvfrm
Library\Bee\artifacts\mvdfrm\UnityEditor.TextCoreFontEngineModule.dll_660B9AAF2FFC3F60.mvfrm
Library\Bee\artifacts\mvdfrm\UnityEditor.TextCoreTextEngineModule.dll_ADF3D120BF7FF87E.mvfrm
Library\Bee\artifacts\mvdfrm\UnityEditor.UIBuilderModule.dll_B54366844C3A6938.mvfrm
Library\Bee\artifacts\mvdfrm\UnityEditor.UIElementsModule.dll_E3F5C537DEC1CC1E.mvfrm
Library\Bee\artifacts\mvdfrm\UnityEditor.UIElementsSamplesModule.dll_C22C6EADA5B7C12F.mvfrm
Library\Bee\artifacts\mvdfrm\UnityEditor.UnityConnectModule.dll_59D9E80B40477BD8.mvfrm
Library\Bee\artifacts\mvdfrm\UnityEngine.AccessibilityModule.dll_DDECC98511194704.mvfrm
Library\Bee\artifacts\mvdfrm\UnityEngine.AIModule.dll_8EC0CBB2569B5A36.mvfrm
Library\Bee\artifacts\mvdfrm\UnityEngine.AndroidJNIModule.dll_623EAE0B27E13AF4.mvfrm
Library\Bee\artifacts\mvdfrm\UnityEngine.AnimationModule.dll_2F403590B3DEC4AA.mvfrm
Library\Bee\artifacts\mvdfrm\UnityEngine.ARModule.dll_483390B5B3B8B8FF.mvfrm
Library\Bee\artifacts\mvdfrm\UnityEngine.AssetBundleModule.dll_EF7F04A345587518.mvfrm
Library\Bee\artifacts\mvdfrm\UnityEngine.AudioModule.dll_ACAF1A4FCBBFEB1C.mvfrm
Library\Bee\artifacts\mvdfrm\UnityEngine.ClothModule.dll_1397774AA5DCCA00.mvfrm
Library\Bee\artifacts\mvdfrm\UnityEngine.ClusterInputModule.dll_D9765D20F1CF4E9E.mvfrm
Library\Bee\artifacts\mvdfrm\UnityEngine.ClusterRendererModule.dll_DA27E1DEE6C886C3.mvfrm
Library\Bee\artifacts\mvdfrm\UnityEngine.ContentLoadModule.dll_88955DE413DB1D05.mvfrm
Library\Bee\artifacts\mvdfrm\UnityEngine.CoreModule.dll_DD828FD6D8FC274D.mvfrm
Library\Bee\artifacts\mvdfrm\UnityEngine.CrashReportingModule.dll_BC64972CCF97CD05.mvfrm
Library\Bee\artifacts\mvdfrm\UnityEngine.DirectorModule.dll_A90F64ADF09560AA.mvfrm
Library\Bee\artifacts\mvdfrm\UnityEngine.dll_45EAFC0FADA600B8.mvfrm
Library\Bee\artifacts\mvdfrm\UnityEngine.DSPGraphModule.dll_AE60C61762F631CB.mvfrm
Library\Bee\artifacts\mvdfrm\UnityEngine.GameCenterModule.dll_8C8BF825EE222BE5.mvfrm
Library\Bee\artifacts\mvdfrm\UnityEngine.GIModule.dll_26FD14BFF24A4250.mvfrm
Library\Bee\artifacts\mvdfrm\UnityEngine.GridModule.dll_BAF3ABC4F150BD44.mvfrm
Library\Bee\artifacts\mvdfrm\UnityEngine.HotReloadModule.dll_B088F3968F11E02C.mvfrm
Library\Bee\artifacts\mvdfrm\UnityEngine.ImageConversionModule.dll_4619DF8F68ED3EB7.mvfrm
Library\Bee\artifacts\mvdfrm\UnityEngine.IMGUIModule.dll_E50EB9B691F17EFD.mvfrm
Library\Bee\artifacts\mvdfrm\UnityEngine.InputLegacyModule.dll_80C41FC1DD4A2B09.mvfrm
Library\Bee\artifacts\mvdfrm\UnityEngine.InputModule.dll_1324E20041F80FC0.mvfrm
Library\Bee\artifacts\mvdfrm\UnityEngine.JSONSerializeModule.dll_3E0452C11054A78E.mvfrm
Library\Bee\artifacts\mvdfrm\UnityEngine.LocalizationModule.dll_17C32773894B4197.mvfrm
Library\Bee\artifacts\mvdfrm\UnityEngine.NVIDIAModule.dll_9749AD1BAA6FF759.mvfrm
Library\Bee\artifacts\mvdfrm\UnityEngine.ParticleSystemModule.dll_0F76E0793DA95893.mvfrm
Library\Bee\artifacts\mvdfrm\UnityEngine.PerformanceReportingModule.dll_898A052D58C4490C.mvfrm
Library\Bee\artifacts\mvdfrm\UnityEngine.Physics2DModule.dll_7BE6258154DBBC3F.mvfrm
Library\Bee\artifacts\mvdfrm\UnityEngine.PhysicsModule.dll_A72F35F1668C516D.mvfrm
Library\Bee\artifacts\mvdfrm\UnityEngine.ProfilerModule.dll_DB559DE489EEE7B7.mvfrm
Library\Bee\artifacts\mvdfrm\UnityEngine.PropertiesModule.dll_B9C73764610D9021.mvfrm
Library\Bee\artifacts\mvdfrm\UnityEngine.RuntimeInitializeOnLoadManagerInitializerModule.dll_DBC7ED1646EC2B08.mvfrm
Library\Bee\artifacts\mvdfrm\UnityEngine.ScreenCaptureModule.dll_57EC004624C0D3F0.mvfrm
Library\Bee\artifacts\mvdfrm\UnityEngine.SharedInternalsModule.dll_CA2B1E64E01B3A07.mvfrm
Library\Bee\artifacts\mvdfrm\UnityEngine.SpriteMaskModule.dll_75B86AB60F91C15F.mvfrm
Library\Bee\artifacts\mvdfrm\UnityEngine.SpriteShapeModule.dll_08E031FDFAFAAD22.mvfrm
Library\Bee\artifacts\mvdfrm\UnityEngine.StreamingModule.dll_E3D522E103667BE8.mvfrm
Library\Bee\artifacts\mvdfrm\UnityEngine.SubstanceModule.dll_C080372A4EB979F6.mvfrm
Library\Bee\artifacts\mvdfrm\UnityEngine.SubsystemsModule.dll_E065D117DDD9A972.mvfrm
Library\Bee\artifacts\mvdfrm\UnityEngine.TerrainModule.dll_C175B1603C4A9A5B.mvfrm
Library\Bee\artifacts\mvdfrm\UnityEngine.TerrainPhysicsModule.dll_0FF1894C56EC5320.mvfrm
Library\Bee\artifacts\mvdfrm\UnityEngine.TextCoreFontEngineModule.dll_E46B160242F9FE2B.mvfrm
Library\Bee\artifacts\mvdfrm\UnityEngine.TextCoreTextEngineModule.dll_2C534C73D27DB749.mvfrm
Library\Bee\artifacts\mvdfrm\UnityEngine.TextRenderingModule.dll_812B7250DBF853E5.mvfrm
Library\Bee\artifacts\mvdfrm\UnityEngine.TilemapModule.dll_607218E154077B64.mvfrm
Library\Bee\artifacts\mvdfrm\UnityEngine.TLSModule.dll_323C966EDE24FF01.mvfrm
Library\Bee\artifacts\mvdfrm\UnityEngine.UIElementsModule.dll_E4A4327FE105E569.mvfrm
Library\Bee\artifacts\mvdfrm\UnityEngine.UIModule.dll_8A3469DFB2E25FE2.mvfrm
Library\Bee\artifacts\mvdfrm\UnityEngine.UmbraModule.dll_2783C66858E6968F.mvfrm
Library\Bee\artifacts\mvdfrm\UnityEngine.UnityAnalyticsCommonModule.dll_24C8C27172ACE76A.mvfrm
Library\Bee\artifacts\mvdfrm\UnityEngine.UnityAnalyticsModule.dll_2F165142E9D0AA8F.mvfrm
Library\Bee\artifacts\mvdfrm\UnityEngine.UnityConnectModule.dll_47396C1A3ACF7C83.mvfrm
Library\Bee\artifacts\mvdfrm\UnityEngine.UnityCurlModule.dll_625CD6C223F2B697.mvfrm
Library\Bee\artifacts\mvdfrm\UnityEngine.UnityTestProtocolModule.dll_7DEF249FFFB31685.mvfrm
Library\Bee\artifacts\mvdfrm\UnityEngine.UnityWebRequestAssetBundleModule.dll_1A0C22636D27A0A0.mvfrm
Library\Bee\artifacts\mvdfrm\UnityEngine.UnityWebRequestAudioModule.dll_0186590BDF2F13A4.mvfrm
Library\Bee\artifacts\mvdfrm\UnityEngine.UnityWebRequestModule.dll_57B8E73973E1D936.mvfrm
Library\Bee\artifacts\mvdfrm\UnityEngine.UnityWebRequestTextureModule.dll_AC4D9D56E59445F9.mvfrm
Library\Bee\artifacts\mvdfrm\UnityEngine.UnityWebRequestWWWModule.dll_F71591CFC23D73B5.mvfrm
Library\Bee\artifacts\mvdfrm\UnityEngine.VehiclesModule.dll_20D25E2D6ABF3045.mvfrm
Library\Bee\artifacts\mvdfrm\UnityEngine.VFXModule.dll_B31B2EDDB492686E.mvfrm
Library\Bee\artifacts\mvdfrm\UnityEngine.VideoModule.dll_D1B89EBA8E5206C1.mvfrm
Library\Bee\artifacts\mvdfrm\UnityEngine.VirtualTexturingModule.dll_E945E6C2B1F423AB.mvfrm
Library\Bee\artifacts\mvdfrm\UnityEngine.VRModule.dll_DD069065549CE55A.mvfrm
Library\Bee\artifacts\mvdfrm\UnityEngine.WindModule.dll_53D16AFF6A32A5B6.mvfrm
Library\Bee\artifacts\mvdfrm\UnityEngine.XRModule.dll_0FC55369DDD732B8.mvfrm
Library\Bee\artifacts\mvdfrm\UnityEditor.WebGL.Extensions.dll_A4E8BB6052D959AE.mvfrm
Library\Bee\artifacts\mvdfrm\UnityEditor.WindowsStandalone.Extensions.dll_50ED4726E9C0899E.mvfrm